^C:\USERS\SPEEDY\SOURCE\REPOS\STAGE1\STAGE1\DEBUG\MAIN.OBJ|C:\USERS\SPEEDY\SOURCE\REPOS\STAGE1\STAGE1\DEBUG\SAMPLER.OBJ
C:\USERS\SPEEDY\SOURCE\REPOS\STAGE1\DEBUG\STAGE1.EXE
C:\USERS\SPEEDY\SOURCE\REPOS\STAGE1\DEBUG\STAGE1.ILK
C:\USERS\SPEEDY\SOURCE\REPOS\STAGE1\DEBUG\STAGE1.PDB
